{
    "name": "//bigquery.googleapis.com/projects/qwerty-ram-noncompliant/datasets/qwerty_ds_01",
    "owner": "",
    "violationResolver": "",
    "ancestryPathDisplayName": "organization_123456789012/folder_123456789012/project_123456789012",
    "ancestryPath": "organization/123456789012/folder/123456789012/project/123456789012",
    "ancestry_path": "organization/123456789012/folder/123456789012/project/123456789012",
    "ancestorsDisplayName": [
        "projects_123456789012",
        "folders_123456789012",
        "organizations_123456789012"
    ],
    "ancestors": [
        "projects/123456789012",
        "folders/123456789012",
        "organizations/123456789012"
    ],
    "assetType": "bigquery.googleapis.com/Dataset",
    "asset_type": "bigquery.googleapis.com/Dataset",
    "iamPolicy": null,
    "iam_policy": null,
    "resource": {
        "data": {
            "creationTime": "1604982398240",
            "datasetReference": {
                "datasetId": "qwerty_ds_01",
                "projectId": "qwerty-ram-noncompliant"
            },
            "defaultTableExpirationMs": "0",
            "description": "good bye",
            "id": "qwerty-ram-noncompliant:qwerty_ds_01",
            "kind": "bigquery#dataset",
            "lastModifiedTime": "1638780660126",
            "location": "US"
        },
        "discoveryDocumentUri": "https://www.googleapis.com/discovery/v1/apis/bigquery/v2/rest",
        "discoveryName": "Dataset",
        "location": "US",
        "parent": "//cloudresourcemanager.googleapis.com/projects/123456789012",
        "version": "v2"
    },
    "projectID": ""
}